# hist hist hist hist hist hist 
0.00000 0.0000 0.0000 0.0000 0.0000 0.0000 0.0000 
2.5000000E-02 0.1336359 7.1059330E-03 4.1402215E-03 1.3138691E-03 3.0870049E-04 3.4289216E-04 
7.5000003E-02 0.1335868 5.6988308E-03 5.1455325E-03 2.0176901E-03 9.2605152E-04 3.5539549E-04 
0.1250000 0.1753492 5.4137101E-03 5.0444752E-03 1.4975717E-03 3.2551354E-04 1.8400951E-04 
0.1750000 0.3128433 1.5359729E-02 9.4898483E-03 1.6730152E-03 2.2653540E-04 1.9265899E-04 
0.2250000 0.4821088 4.2140007E-02 1.8213293E-02 2.0801472E-03 1.9691302E-04 2.3662456E-04 
0.2750000 0.5881671 0.1004698 3.0679636E-02 2.5281869E-03 1.7889393E-04 6.2709517E-04 
0.3250000 0.5547664 0.2023368 3.3106837E-02 1.4048875E-03 1.3915378E-04 5.7379791E-04 
0.3750000 0.3991651 0.3580159 5.1199619E-02 1.9197046E-03 3.1060661E-04 6.4714637E-04 
0.4250000 0.2484729 0.5272396 0.1035495 3.6751139E-03 1.0677027E-03 7.0580631E-04 
0.4750000 0.1482682 0.6242400 0.1505655 4.0283394E-03 1.0178484E-03 9.0972905E-04 
0.5250000 8.2505681E-02 0.6353534 0.2434880 6.6617406E-03 1.1238430E-03 1.0792313E-03 
0.5750000 5.2357104E-02 0.5049283 0.4693917 2.5286945E-02 2.6929406E-03 1.4248439E-03 
0.6250000 2.9972235E-02 0.2805219 0.6585897 9.7413078E-02 8.5783126E-03 2.5981537E-03 
0.6750000 1.5673069E-02 0.1007847 0.6367646 0.3038270 3.0751737E-02 8.9331092E-03 
0.7250000 8.7167248E-03 3.1720426E-02 0.4213478 0.5706049 8.8758968E-02 1.8377012E-02 
0.7750000 3.9788629E-03 1.1600178E-02 0.2241685 0.6687152 0.1887079 2.3447296E-02 
0.8250000 2.0584387E-03 5.4778410E-03 0.1102075 0.5701359 0.3336359 3.3598673E-02 
0.8750000 9.4258873E-04 2.7037393E-03 4.9182326E-02 0.3761654 0.4967969 5.3558003E-02 
0.9250000 8.9443621E-04 2.3273025E-03 3.3959374E-02 0.2329195 0.4935310 0.1018027 
0.9750000 9.5587212E-04 2.0603249E-03 2.3166172E-02 0.1324728 0.4228002 0.1832438 
1.025000 1.0531286E-03 1.8429898E-03 1.6221002E-02 7.3695831E-02 0.3138898 0.2719340 
1.075000 1.1996975E-03 1.6443025E-03 1.1321062E-02 4.1429598E-02 0.2075709 0.3323870 
1.125000 1.3767486E-03 1.5916340E-03 8.6991657E-03 2.7072567E-02 0.1361694 0.3414712 
1.175000 1.5121748E-03 1.5740356E-03 7.3681204E-03 2.1957103E-02 9.8257184E-02 0.3221759 
1.225000 1.6418382E-03 1.5257247E-03 6.3300733E-03 1.8562445E-02 7.1640737E-02 0.2922833 
1.275000 2.1828986E-03 1.7827714E-03 7.5987275E-03 1.9735236E-02 5.7647295E-02 0.2312230 
1.325000 2.9483736E-03 2.1368060E-03 1.0279453E-02 2.4654215E-02 5.2150674E-02 0.1646971 
1.375000 3.8987657E-03 2.5363534E-03 1.3173798E-02 3.1049944E-02 4.8658617E-02 0.1094237 
1.425000 4.9565621E-03 2.8009079E-03 1.4946537E-02 3.5114862E-02 4.2782549E-02 7.0120759E-02 
1.475000 5.7985899E-03 2.8757292E-03 1.5486294E-02 3.6388922E-02 3.6119483E-02 4.3999963E-02 
1.525000 5.8916239E-03 2.6306638E-03 1.4563089E-02 3.4493148E-02 2.9895915E-02 2.9050246E-02 
1.575000 5.2613360E-03 2.2411277E-03 1.2802925E-02 3.0460197E-02 2.4629813E-02 2.1042731E-02 
1.625000 4.3530548E-03 1.9009218E-03 1.0784715E-02 2.5470845E-02 2.0243455E-02 1.6396653E-02 
1.675000 3.4973791E-03 1.6409002E-03 8.9306217E-03 2.0239245E-02 1.6313156E-02 1.2988669E-02 
1.725000 2.8306223E-03 1.4822325E-03 7.2228648E-03 1.5254434E-02 1.2907690E-02 1.0592530E-02 
1.775000 2.4120260E-03 1.4199831E-03 5.6718183E-03 1.0982811E-02 9.9086771E-03 8.8984463E-03 
1.825000 2.2670929E-03 1.4550090E-03 4.5137415E-03 7.8246742E-03 7.2582019E-03 7.2906781E-03 
1.875000 2.3207339E-03 1.5171656E-03 3.5937920E-03 5.5408948E-03 5.0444687E-03 5.8209994E-03 
1.925000 2.5520031E-03 1.5550958E-03 2.8585263E-03 3.9150636E-03 3.3022126E-03 4.5263958E-03 
1.975000 2.9025995E-03 1.5255655E-03 2.2764551E-03 2.7394842E-03 2.0411978E-03 3.4331859E-03 
2.025000 3.3756106E-03 1.4408042E-03 1.8004988E-03 1.8904629E-03 1.1907567E-03 2.5170313E-03 
2.075000 3.8395259E-03 1.3031126E-03 1.4004199E-03 1.2640518E-03 6.6434324E-04 1.7759207E-03 
2.125000 4.2795520E-03 1.1262826E-03 1.0676368E-03 8.1142131E-04 3.4598671E-04 1.1886840E-03 
2.175000 4.6230713E-03 9.2330057E-04 8.1875565E-04 4.9358053E-04 1.6737243E-04 7.4795220E-04 
2.225000 4.7456943E-03 7.3344400E-04 6.0440542E-04 2.8631691E-04 7.9565041E-05 4.5155562E-04 
2.275000 4.6695927E-03 5.6521653E-04 4.1079527E-04 1.6033193E-04 3.8488171E-05 2.6202673E-04 
2.325000 4.3579456E-03 4.0731693E-04 2.5361159E-04 8.8283086E-05 2.0004016E-05 1.4697228E-04 
2.375000 3.9091487E-03 2.6120147E-04 1.4059636E-04 4.9277252E-05 1.0564013E-05 7.9455058E-05 
2.425000 3.4433806E-03 1.7311322E-04 8.7150976E-05 3.1554162E-05 6.6988546E-06 4.4833476E-05 
2.475000 3.0812949E-03 1.1868536E-04 6.0008930E-05 2.2303013E-05 4.7462854E-06 2.5976738E-05 
2.525000 2.6944363E-03 7.7625962E-05 4.0226536E-05 1.6658789E-05 3.6366405E-06 1.5512480E-05 
2.575000 2.3369398E-03 5.2429888E-05 2.8289451E-05 1.3015133E-05 3.0127794E-06 9.7260872E-06 
2.625000 2.1169244E-03 3.8566792E-05 2.1265263E-05 1.0593540E-05 2.6277110E-06 6.5732752E-06 
2.675000 2.0411697E-03 3.1950978E-05 1.6910712E-05 8.8970319E-06 2.4367757E-06 4.6398982E-06 
2.725000 2.0340001E-03 2.7489887E-05 1.2858090E-05 7.3550655E-06 2.2711240E-06 3.3049837E-06 
2.775000 2.0697813E-03 2.6282441E-05 9.6658641E-06 6.2546560E-06 2.1063511E-06 2.5042734E-06 
2.825000 2.0241837E-03 2.8987226E-05 7.9375341E-06 5.8073606E-06 2.0488299E-06 2.1228423E-06 
2.875000 1.7545786E-03 3.3642063E-05 7.1272357E-06 5.7886282E-06 2.1215210E-06 1.9570168E-06 
2.925000 1.2828609E-03 3.8905921E-05 7.2849834E-06 6.1483515E-06 2.3817265E-06 1.8174188E-06 
2.975000 9.6955994E-04 4.7158726E-05 8.1594162E-06 6.7734763E-06 2.6788850E-06 1.7216862E-06 
3.025000 7.9532922E-04 5.9935759E-05 9.8784622E-06 7.5061880E-06 2.8125858E-06 1.5364923E-06 
3.075000 7.8117085E-04 7.8744190E-05 1.1676351E-05 7.8606918E-06 2.6028697E-06 1.3410200E-06 
3.125000 8.0391369E-04 1.0196261E-04 1.3502840E-05 7.7331852E-06 2.0749058E-06 1.1310323E-06 
3.175000 8.4963226E-04 1.3272074E-04 1.5600976E-05 7.4976306E-06 1.5571644E-06 8.4680062E-07 
3.225000 9.0642483E-04 1.6702386E-04 1.6928574E-05 7.1428158E-06 1.1394119E-06 6.3008514E-07 
3.275000 9.9504518E-04 2.0799246E-04 1.7154838E-05 6.5796548E-06 7.6834266E-07 4.4051575E-07 
3.325000 1.1307673E-03 2.5197378E-04 1.5954174E-05 6.0272018E-06 5.2627684E-07 3.0846491E-07 
3.375000 1.2914394E-03 3.0408270E-04 1.3956946E-05 5.6513381E-06 3.8577505E-07 2.2448461E-07 
3.425000 1.3522772E-03 3.7437739E-04 1.1126906E-05 5.3579620E-06 2.8915360E-07 1.6253259E-07 
3.475000 1.2615211E-03 4.7523982E-04 8.1204153E-06 5.0853851E-06 2.1468463E-07 1.1593896E-07 
3.50000 0.0000 0.0000 0.0000 0.0000 0.0000 0.0000 
